…
In these notes, I will use the `msleep` dataset
in order to show various numerical summaries. Here is an example of
the dataset:


{% highlight r %}
msleep
{% endhighlight %}



{% highlight text %}
## # A tibble: 43 x 9
##    name     genus  vore  order sleep_total sleep_rem awake brainwt  bodywt
##    <chr>    <chr>  <chr> <chr>       <dbl>     <dbl> <dbl>   <dbl>   <dbl>
##  1 Owl mon… Aotus  omni  Prim…        17         1.8   7   1.55e-2   0.48 
##  2 Greater… Blari… omni  Sori…        14.9       2.3   9.1 2.90e-4   0.019
##  3 Cow      Bos    herbi Arti…         4         0.7  20   4.23e-1 600    
##  4 Dog      Canis  carni Carn…        10.1       2.9  13.9 7.00e-2  14    
##  5 Goat     Capri  herbi Arti…         5.3       0.6  18.7 1.15e-1  33.5  
##  6 Guinea … Cavis  herbi Rode…         9.4       0.8  14.6 5.50e-3   0.728
##  7 Chinchi… Chinc… herbi Rode…        12.5       1.5  11.5 6.40e-3   0.42 
##  8 Star-no… Condy… omni  Sori…        10.3       2.2  13.7 1.00e-3   0.06 
##  9 African… Crice… omni  Rode…         8.3       2    15.7 6.60e-3   1    
## 10 Lesser … Crypt… omni  Sori…         9.1       1.4  14.9 1.40e-4   0.005
## # ... with 33 more rows
…
