…
Let's look at the births dataset again from last time:


{% highlight r %}
library(readr)

births <- read_csv("https://statsmaths.github.io/stat_data/arbuthnot.csv")
births
{% endhighlight %}



{% highlight text %}
## # A tibble: 82 x 6
##    head_of_state  year  boys girls total boy_to_girl_ratio
##    <chr>         <int> <int> <int> <int>             <dbl>
##  1 Charles I      1629  5218  4683  9901              1.11
##  2 Charles I      1630  4858  4457  9315              1.09
##  3 Charles I      1631  4422  4102  8524              1.08
##  4 Charles I      1632  4994  4590  9584              1.09
##  5 Charles I      1633  5158  4839  9997              1.07
##  6 Charles I      1634  5035  4820  9855              1.04
##  7 Charles I      1635  5106  4928 10034              1.04
##  8 Charles I      1636  4917  4605  9522              1.07
##  9 Charles I      1637  4703  4457  9160              1.06
## 10 Charles I      1638  5359  4952 10311              1.08
## # ... with 72 more rows
…
